0.05	1.0	1953	1901	0.973	[0.86, 0.77, 0.65, 0.35]
0.06	1.0	1953	1901	0.973	[0.86, 0.77, 0.65, 0.35]
0.07	1.0	1953	1901	0.973	[0.86, 0.77, 0.65, 0.35]
0.08	1.0	1953	1901	0.973	[0.86, 0.77, 0.65, 0.35]
0.09	1.0	1953	1901	0.973	[0.86, 0.77, 0.65, 0.35]
0.1	1.0	1953	1901	0.973	[0.86, 0.77, 0.66, 0.35]
0.11	1.0	1953	1901	0.973	[0.86, 0.77, 0.66, 0.35]
0.12	1.0	1953	1899	0.972	[0.87, 0.78, 0.67, 0.36]
0.13	1.0	1953	1898	0.972	[0.89, 0.79, 0.68, 0.36]
0.14	1.0	1953	1898	0.972	[0.89, 0.79, 0.68, 0.36]
0.15	1.0	1953	1898	0.972	[0.9, 0.8, 0.69, 0.38]
0.16	1.0	1953	1898	0.972	[0.91, 0.81, 0.7, 0.38]
0.17	1.0	1953	1898	0.972	[0.91, 0.81, 0.71, 0.4]
0.18	1.0	1953	1898	0.972	[0.91, 0.81, 0.71, 0.4]
0.19	1.0	1953	1898	0.972	[0.91, 0.81, 0.71, 0.4]
0.2	1.0	1953	1898	0.972	[0.91, 0.81, 0.71, 0.4]
0.21	1.0	1953	1896	0.971	[0.92, 0.83, 0.74, 0.42]
0.22	1.0	1953	1896	0.971	[0.92, 0.83, 0.74, 0.43]
0.23	1.0	1953	1896	0.971	[0.92, 0.83, 0.74, 0.43]
0.24	1.0	1953	1896	0.971	[0.92, 0.83, 0.75, 0.44]
0.25	1.0	1953	1896	0.971	[0.92, 0.83, 0.75, 0.44]
0.26	1.0	1953	1891	0.968	[0.93, 0.85, 0.77, 0.45]
0.27	1.0	1953	1890	0.968	[0.93, 0.85, 0.77, 0.45]
0.28	1.0	1953	1890	0.968	[0.93, 0.85, 0.77, 0.46]
0.29	1.0	1953	1888	0.967	[0.93, 0.85, 0.78, 0.46]
0.3	1.0	1953	1888	0.967	[0.93, 0.85, 0.78, 0.46]
0.31	1.0	1953	1888	0.967	[0.93, 0.85, 0.78, 0.47]
0.32	1.0	1953	1888	0.967	[0.93, 0.85, 0.78, 0.47]
0.33	1.0	1953	1888	0.967	[0.93, 0.85, 0.78, 0.47]
0.34	1.0	1953	1862	0.953	[0.94, 0.88, 0.81, 0.5]
0.35	1.0	1953	1862	0.953	[0.94, 0.88, 0.81, 0.5]
0.36	1.0	1953	1861	0.953	[0.94, 0.88, 0.81, 0.49]
0.37	1.0	1953	1861	0.953	[0.94, 0.88, 0.81, 0.5]
0.38	1.0	1953	1859	0.952	[0.94, 0.88, 0.82, 0.5]
0.39	1.0	1953	1859	0.952	[0.94, 0.88, 0.82, 0.5]
0.4	1.0	1953	1859	0.952	[0.94, 0.88, 0.82, 0.5]
0.41	1.0	1953	1844	0.944	[0.95, 0.89, 0.83, 0.51]
0.42	1.0	1953	1843	0.944	[0.95, 0.89, 0.83, 0.51]
0.43	1.0	1953	1842	0.943	[0.95, 0.89, 0.83, 0.52]
0.44	1.0	1953	1842	0.943	[0.95, 0.89, 0.83, 0.52]
0.45	1.0	1953	1842	0.943	[0.95, 0.89, 0.83, 0.52]
0.46	1.0	1953	1841	0.943	[0.95, 0.89, 0.83, 0.53]
0.47	1.0	1953	1840	0.942	[0.95, 0.89, 0.83, 0.53]
0.48	1.0	1953	1840	0.942	[0.95, 0.89, 0.83, 0.53]
0.49	1.0	1953	1840	0.942	[0.95, 0.89, 0.83, 0.53]
